Data;IP;Type;code;
2009-09-06 21:05:46;127.0.0.1;2;511749
2009-09-06 21:09:34;127.0.0.1;2;766784
2009-09-06 21:09:55;127.0.0.1;2;112518
2009-09-06 21:10:13;127.0.0.1;1;406860
2009-09-06 21:10:35;127.0.0.1;1;912017
2009-09-06 21:10:36;127.0.0.1;1;958557
2009-09-06 21:10:37;127.0.0.1;1;328216
2009-09-06 21:10:37;127.0.0.1;1;980468
2009-09-06 21:10:38;127.0.0.1;1;247833
2009-09-06 21:10:38;127.0.0.1;1;124938
2009-09-06 21:10:39;127.0.0.1;1;776336
2009-09-06 21:10:39;127.0.0.1;1;888061
2009-09-06 21:10:40;127.0.0.1;1;987945
2009-09-06 21:10:41;127.0.0.1;1;359680
2009-09-06 21:10:41;127.0.0.1;1;675628
2009-09-06 21:10:42;127.0.0.1;1;973388
2009-09-06 21:10:42;127.0.0.1;1;101104
2009-09-06 21:10:43;127.0.0.1;1;256530
2009-09-06 21:10:43;127.0.0.1;1;744842
2009-09-06 21:21:02;86.57.195.10;2;927590
2009-09-07 13:06:17;217.21.61.6;1;56774
2009-09-07 13:42:32;217.21.61.6;1;26603
2009-09-07 20:14:52;91.149.137.121;1;107463
2009-09-07 20:18:46;91.149.137.121;1;557621
2009-09-07 21:32:27;91.149.137.121;1;673550
2009-09-07 21:51:34;91.149.137.121;1;748277
2009-09-07 21:52:01;91.149.137.121;1;133776
2009-09-07 21:52:39;91.149.137.121;1;619942
2009-09-07 22:00:19;91.149.137.121;1;462503
2009-09-07 22:00:45;91.149.137.121;1;867517
2009-09-07 22:03:45;91.149.137.121;1;561339
2009-09-07 22:08:17;91.149.137.121;1;182480
2009-09-07 22:14:48;91.149.137.121;1;8267
2009-09-07 22:26:30;91.149.137.121;1;917724
2009-09-07 22:27:12;91.149.137.121;1;739396
2009-09-07 22:33:35;91.149.137.121;1;77676
2009-09-07 22:38:06;91.149.137.121;1;943913
2009-09-07 22:40:56;91.149.137.121;1;198625
2009-09-09 11:35:06;127.0.0.1;2;114105
